<svg width="97" height="77" viewBox="0 0 97 77" fill="none" xmlns="http://www.w3.org/2000/svg">
<path d="M74.1661 23.1896H15.3027V61.6776H74.1661V23.1896Z" fill="#F2F2F2"/>
<path d="M96.4872 1H1.08105V75.8159H96.4872V1Z" stroke="#3F3D56" stroke-miterlimit="10"/>
<path d="M1.17969 5.32007H96.5858" stroke="#3F3D56" stroke-miterlimit="10"/>
<path d="M3.056 4.33831C3.60146 4.33831 4.04364 3.89872 4.04364 3.35647C4.04364 2.81422 3.60146 2.37463 3.056 2.37463C2.51054 2.37463 2.06836 2.81422 2.06836 3.35647C2.06836 3.89872 2.51054 4.33831 3.056 4.33831Z" fill="#F86B75"/>
<path d="M5.82211 4.33831C6.36757 4.33831 6.80975 3.89872 6.80975 3.35647C6.80975 2.81422 6.36757 2.37463 5.82211 2.37463C5.27665 2.37463 4.83447 2.81422 4.83447 3.35647C4.83447 3.89872 5.27665 4.33831 5.82211 4.33831Z" fill="#FAD375"/>
<path d="M8.58725 4.33831C9.13271 4.33831 9.57489 3.89872 9.57489 3.35647C9.57489 2.81422 9.13271 2.37463 8.58725 2.37463C8.04179 2.37463 7.59961 2.81422 7.59961 3.35647C7.59961 3.89872 8.04179 4.33831 8.58725 4.33831Z" fill="#8BCC55"/>
<path d="M3.45102 3.74907C3.99648 3.74907 4.43866 3.30949 4.43866 2.76724C4.43866 2.22498 3.99648 1.7854 3.45102 1.7854C2.90556 1.7854 2.46338 2.22498 2.46338 2.76724C2.46338 3.30949 2.90556 3.74907 3.45102 3.74907Z" stroke="#3F3D56" stroke-miterlimit="10"/>
<path d="M6.21665 3.74907C6.7621 3.74907 7.20429 3.30949 7.20429 2.76724C7.20429 2.22498 6.7621 1.7854 6.21665 1.7854C5.67119 1.7854 5.229 2.22498 5.229 2.76724C5.229 3.30949 5.67119 3.74907 6.21665 3.74907Z" stroke="#3F3D56" stroke-miterlimit="10"/>
<path d="M8.98227 3.74907C9.52773 3.74907 9.96991 3.30949 9.96991 2.76724C9.96991 2.22498 9.52773 1.7854 8.98227 1.7854C8.43681 1.7854 7.99463 2.22498 7.99463 2.76724C7.99463 3.30949 8.43681 3.74907 8.98227 3.74907Z" stroke="#3F3D56" stroke-miterlimit="10"/>
<path d="M78.8082 16.9406H19.9448V55.4285H78.8082V16.9406Z" stroke="#3F3D56" stroke-miterlimit="10"/>
<path d="M77.8211 65.8994H66.957V68.8449H77.8211V65.8994Z" fill="#FAD375"/>
<path d="M78.8079 65.1139H67.9438V68.0594H78.8079V65.1139Z" stroke="#3F3D56" stroke-miterlimit="10"/>
<path d="M50.0466 41.4606L45.5016 36.804C45.4024 36.7047 45.2839 36.6265 45.1532 36.5743C45.0226 36.5221 44.8826 36.497 44.7418 36.5006H44.7282C44.5875 36.497 44.4475 36.5221 44.3168 36.5743C44.1862 36.6265 44.0676 36.7047 43.9685 36.804L39.4235 41.4606C39.3231 41.5539 39.2431 41.6667 39.1884 41.7919C39.1337 41.9172 39.1055 42.0524 39.1055 42.1889C39.1055 42.3255 39.1337 42.4606 39.1884 42.5859C39.2431 42.7112 39.3231 42.824 39.4235 42.9173C39.6313 43.1106 39.9053 43.2182 40.19 43.2182C40.4747 43.2182 40.7487 43.1106 40.9565 42.9173L43.6496 40.1186V47.3344C43.6621 47.6122 43.782 47.8745 43.9842 48.0667C44.1863 48.2589 44.4553 48.3662 44.735 48.3662C45.0148 48.3662 45.2837 48.2589 45.4859 48.0667C45.6881 47.8745 45.8079 47.6122 45.8204 47.3344V40.1186L48.5135 42.9173C48.7214 43.1106 48.9954 43.2182 49.2801 43.2182C49.5647 43.2182 49.8387 43.1106 50.0466 42.9173C50.1469 42.824 50.227 42.7112 50.2817 42.5859C50.3364 42.4606 50.3646 42.3255 50.3646 42.1889C50.3646 42.0524 50.3364 41.9172 50.2817 41.7919C50.227 41.6667 50.1469 41.5539 50.0466 41.4606V41.4606Z" fill="#F9A826"/>
</svg>
